[gd_scene load_steps=4 format=2]

[ext_resource path="res://scenes/Buildings/Building.tscn" type="PackedScene" id=1]
[ext_resource path="res://res/buildings/tall_house.png" type="Texture" id=2]

[sub_resource type="ConvexPolygonShape2D" id=1]
points = PoolVector2Array( 0, 48, 95, 0, 95, -202, 78, -212, 78, -270, 0, -310, -78, -270, -78, -212, -95, -202, -95, 0 )

[node name="TallHouse" instance=ExtResource( 1 )]

[node name="Sprite" parent="." index="0"]
position = Vector2( -0.769231, -106.846 )
texture = ExtResource( 2 )

[node name="CollisionShape2D" parent="." index="1"]
shape = SubResource( 1 )
